-- Merging decision tree log ---
manifest
ADDED from /Users/jeovahfialho/projetos/uapre-nearby/react-native-google-nearby-connection/example/android/app/src/main/AndroidManifest.xml:1:1-34:12
	package
		ADDED from /Users/jeovahfialho/projetos/uapre-nearby/react-native-google-nearby-connection/example/android/app/src/main/AndroidManifest.xml:2:5-62
		INJECTED from /Users/jeovahfialho/projetos/uapre-nearby/react-native-google-nearby-connection/example/android/app/src/main/AndroidManifest.xml
		INJECTED from /Users/jeovahfialho/projetos/uapre-nearby/react-native-google-nearby-connection/example/android/app/src/main/AndroidManifest.xml
	android:versionName
		ADDED from /Users/jeovahfialho/projetos/uapre-nearby/react-native-google-nearby-connection/example/android/app/src/main/AndroidManifest.xml:4:5-30
		INJECTED from /Users/jeovahfialho/projetos/uapre-nearby/react-native-google-nearby-connection/example/android/app/src/main/AndroidManifest.xml
		INJECTED from /Users/jeovahfialho/projetos/uapre-nearby/react-native-google-nearby-connection/example/android/app/src/main/AndroidManifest.xml
	android:versionCode
		ADDED from /Users/jeovahfialho/projetos/uapre-nearby/react-native-google-nearby-connection/example/android/app/src/main/AndroidManifest.xml:3:5-28
		INJECTED from /Users/jeovahfialho/projetos/uapre-nearby/react-native-google-nearby-connection/example/android/app/src/main/AndroidManifest.xml
		INJECTED from /Users/jeovahfialho/projetos/uapre-nearby/react-native-google-nearby-connection/example/android/app/src/main/AndroidManifest.xml
	xmlns:android
		ADDED from /Users/jeovahfialho/projetos/uapre-nearby/react-native-google-nearby-connection/example/android/app/src/main/AndroidManifest.xml:1:11-69
uses-permission#android.permission.INTERNET
ADDED from /Users/jeovahfialho/projetos/uapre-nearby/react-native-google-nearby-connection/example/android/app/src/main/AndroidManifest.xml:6:5-67
MERGED from [TempApp:react-native-google-nearby-connection:unspecified] /Users/jeovahfialho/projetos/uapre-nearby/react-native-google-nearby-connection/example/android/app/build/intermediates/exploded-aar/TempApp/react-native-google-nearby-connection/unspecified/AndroidManifest.xml:11:5-67
	android:name
		ADDED from /Users/jeovahfialho/projetos/uapre-nearby/react-native-google-nearby-connection/example/android/app/src/main/AndroidManifest.xml:6:22-64
uses-permission#android.permission.SYSTEM_ALERT_WINDOW
ADDED from /Users/jeovahfialho/projetos/uapre-nearby/react-native-google-nearby-connection/example/android/app/src/main/AndroidManifest.xml:7:5-77
MERGED from [com.facebook.react:react-native:0.52.0] /Users/jeovahfialho/projetos/uapre-nearby/react-native-google-nearby-connection/example/android/app/build/intermediates/exploded-aar/com.facebook.react/react-native/0.52.0/AndroidManifest.xml:11:5-78
MERGED from [TempApp:react-native-google-nearby-connection:unspecified] /Users/jeovahfialho/projetos/uapre-nearby/react-native-google-nearby-connection/example/android/app/build/intermediates/exploded-aar/TempApp/react-native-google-nearby-connection/unspecified/AndroidManifest.xml:12:5-78
	android:name
		ADDED from /Users/jeovahfialho/projetos/uapre-nearby/react-native-google-nearby-connection/example/android/app/src/main/AndroidManifest.xml:7:22-75
uses-permission#android.permission.CAMERA
ADDED from /Users/jeovahfialho/projetos/uapre-nearby/react-native-google-nearby-connection/example/android/app/src/main/AndroidManifest.xml:8:5-65
MERGED from [TempApp:react-native-google-nearby-connection:unspecified] /Users/jeovahfialho/projetos/uapre-nearby/react-native-google-nearby-connection/example/android/app/build/intermediates/exploded-aar/TempApp/react-native-google-nearby-connection/unspecified/AndroidManifest.xml:21:5-65
	android:name
		ADDED from /Users/jeovahfialho/projetos/uapre-nearby/react-native-google-nearby-connection/example/android/app/src/main/AndroidManifest.xml:8:22-62
uses-permission#android.permission.WRITE_EXTERNAL_STORAGE
ADDED from /Users/jeovahfialho/projetos/uapre-nearby/react-native-google-nearby-connection/example/android/app/src/main/AndroidManifest.xml:9:5-80
MERGED from [TempApp:react-native-google-nearby-connection:unspecified] /Users/jeovahfialho/projetos/uapre-nearby/react-native-google-nearby-connection/example/android/app/build/intermediates/exploded-aar/TempApp/react-native-google-nearby-connection/unspecified/AndroidManifest.xml:20:5-81
	android:name
		ADDED from /Users/jeovahfialho/projetos/uapre-nearby/react-native-google-nearby-connection/example/android/app/src/main/AndroidManifest.xml:9:22-78
uses-sdk
ADDED from /Users/jeovahfialho/projetos/uapre-nearby/react-native-google-nearby-connection/example/android/app/src/main/AndroidManifest.xml:11:5-13:41
MERGED from [TempApp:react-native-vector-icons:unspecified] /Users/jeovahfialho/projetos/uapre-nearby/react-native-google-nearby-connection/example/android/app/build/intermediates/exploded-aar/TempApp/react-native-vector-icons/unspecified/AndroidManifest.xml:7:5-9:41
MERGED from [TempApp:react-native-image-picker:unspecified] /Users/jeovahfialho/projetos/uapre-nearby/react-native-google-nearby-connection/example/android/app/build/intermediates/exploded-aar/TempApp/react-native-image-picker/unspecified/AndroidManifest.xml:7:5-9:41
MERGED from [com.facebook.react:react-native:0.52.0] /Users/jeovahfialho/projetos/uapre-nearby/react-native-google-nearby-connection/example/android/app/build/intermediates/exploded-aar/com.facebook.react/react-native/0.52.0/AndroidManifest.xml:7:5-9:41
MERGED from [com.facebook.fbui.textlayoutbuilder:textlayoutbuilder:1.0.0] /Users/jeovahfialho/projetos/uapre-nearby/react-native-google-nearby-connection/example/android/app/build/intermediates/exploded-aar/com.facebook.fbui.textlayoutbuilder/textlayoutbuilder/1.0.0/AndroidManifest.xml:14:5-16:41
MERGED from [com.facebook.fresco:fresco:1.3.0] /Users/jeovahfialho/projetos/uapre-nearby/react-native-google-nearby-connection/example/android/app/build/intermediates/exploded-aar/com.facebook.fresco/fresco/1.3.0/AndroidManifest.xml:5:5-7:41
MERGED from [com.facebook.fresco:drawee:1.3.0] /Users/jeovahfialho/projetos/uapre-nearby/react-native-google-nearby-connection/example/android/app/build/intermediates/exploded-aar/com.facebook.fresco/drawee/1.3.0/AndroidManifest.xml:5:5-7:41
MERGED from [com.facebook.fresco:imagepipeline-okhttp3:1.3.0] /Users/jeovahfialho/projetos/uapre-nearby/react-native-google-nearby-connection/example/android/app/build/intermediates/exploded-aar/com.facebook.fresco/imagepipeline-okhttp3/1.3.0/AndroidManifest.xml:5:5-7:41
MERGED from [com.facebook.fresco:imagepipeline:1.3.0] /Users/jeovahfialho/projetos/uapre-nearby/react-native-google-nearby-connection/example/android/app/build/intermediates/exploded-aar/com.facebook.fresco/imagepipeline/1.3.0/AndroidManifest.xml:5:5-7:41
MERGED from [com.facebook.fresco:imagepipeline-base:1.3.0] /Users/jeovahfialho/projetos/uapre-nearby/react-native-google-nearby-connection/example/android/app/build/intermediates/exploded-aar/com.facebook.fresco/imagepipeline-base/1.3.0/AndroidManifest.xml:5:5-7:41
MERGED from [com.facebook.fresco:fbcore:1.3.0] /Users/jeovahfialho/projetos/uapre-nearby/react-native-google-nearby-connection/example/android/app/build/intermediates/exploded-aar/com.facebook.fresco/fbcore/1.3.0/AndroidManifest.xml:5:5-7:41
MERGED from [com.facebook.soloader:soloader:0.1.0] /Users/jeovahfialho/projetos/uapre-nearby/react-native-google-nearby-connection/example/android/app/build/intermediates/exploded-aar/com.facebook.soloader/soloader/0.1.0/AndroidManifest.xml:2:3-70
MERGED from [TempApp:react-native-google-nearby-connection:unspecified] /Users/jeovahfialho/projetos/uapre-nearby/react-native-google-nearby-connection/example/android/app/build/intermediates/exploded-aar/TempApp/react-native-google-nearby-connection/unspecified/AndroidManifest.xml:7:5-9:41
MERGED from [com.android.support:multidex:1.0.1] /Users/jeovahfialho/projetos/uapre-nearby/react-native-google-nearby-connection/example/android/app/build/intermediates/exploded-aar/com.android.support/multidex/1.0.1/AndroidManifest.xml:18:5-42
MERGED from [com.google.android.gms:play-services-nearby:11.8.0] /Users/jeovahfialho/projetos/uapre-nearby/react-native-google-nearby-connection/example/android/app/build/intermediates/exploded-aar/com.google.android.gms/play-services-nearby/11.8.0/AndroidManifest.xml:5:5-44
MERGED from [com.google.android.gms:play-services-base:11.8.0] /Users/jeovahfialho/projetos/uapre-nearby/react-native-google-nearby-connection/example/android/app/build/intermediates/exploded-aar/com.google.android.gms/play-services-base/11.8.0/AndroidManifest.xml:20:5-44
MERGED from [com.google.android.gms:play-services-base-license:11.8.0] /Users/jeovahfialho/projetos/uapre-nearby/react-native-google-nearby-connection/example/android/app/build/intermediates/exploded-aar/com.google.android.gms/play-services-base-license/11.8.0/AndroidManifest.xml:4:5-43
MERGED from [com.google.android.gms:play-services-tasks:11.8.0] /Users/jeovahfialho/projetos/uapre-nearby/react-native-google-nearby-connection/example/android/app/build/intermediates/exploded-aar/com.google.android.gms/play-services-tasks/11.8.0/AndroidManifest.xml:5:5-44
MERGED from [com.google.android.gms:play-services-basement:11.8.0] /Users/jeovahfialho/projetos/uapre-nearby/react-native-google-nearby-connection/example/android/app/build/intermediates/exploded-aar/com.google.android.gms/play-services-basement/11.8.0/AndroidManifest.xml:20:5-44
MERGED from [com.google.android.gms:play-services-basement-license:11.8.0] /Users/jeovahfialho/projetos/uapre-nearby/react-native-google-nearby-connection/example/android/app/build/intermediates/exploded-aar/com.google.android.gms/play-services-basement-license/11.8.0/AndroidManifest.xml:4:5-43
MERGED from [com.google.android.gms:play-services-tasks-license:11.8.0] /Users/jeovahfialho/projetos/uapre-nearby/react-native-google-nearby-connection/example/android/app/build/intermediates/exploded-aar/com.google.android.gms/play-services-tasks-license/11.8.0/AndroidManifest.xml:4:5-43
MERGED from [com.google.android.gms:play-services-nearby-license:11.8.0] /Users/jeovahfialho/projetos/uapre-nearby/react-native-google-nearby-connection/example/android/app/build/intermediates/exploded-aar/com.google.android.gms/play-services-nearby-license/11.8.0/AndroidManifest.xml:4:5-43
MERGED from [com.android.support:appcompat-v7:25.3.1] /Users/jeovahfialho/projetos/uapre-nearby/react-native-google-nearby-connection/example/android/app/build/intermediates/exploded-aar/com.android.support/appcompat-v7/25.3.1/AndroidManifest.xml:21:5-23:78
MERGED from [com.android.support:support-v4:25.3.1] /Users/jeovahfialho/projetos/uapre-nearby/react-native-google-nearby-connection/example/android/app/build/intermediates/exploded-aar/com.android.support/support-v4/25.3.1/AndroidManifest.xml:21:5-23:54
MERGED from [com.android.support:support-fragment:25.3.1] /Users/jeovahfialho/projetos/uapre-nearby/react-native-google-nearby-connection/example/android/app/build/intermediates/exploded-aar/com.android.support/support-fragment/25.3.1/AndroidManifest.xml:21:5-23:60
MERGED from [com.android.support:support-media-compat:25.3.1] /Users/jeovahfialho/projetos/uapre-nearby/react-native-google-nearby-connection/example/android/app/build/intermediates/exploded-aar/com.android.support/support-media-compat/25.3.1/AndroidManifest.xml:21:5-23:63
MERGED from [com.android.support:support-core-ui:25.3.1] /Users/jeovahfialho/projetos/uapre-nearby/react-native-google-nearby-connection/example/android/app/build/intermediates/exploded-aar/com.android.support/support-core-ui/25.3.1/AndroidManifest.xml:21:5-23:58
MERGED from [com.android.support:support-core-utils:25.3.1] /Users/jeovahfialho/projetos/uapre-nearby/react-native-google-nearby-connection/example/android/app/build/intermediates/exploded-aar/com.android.support/support-core-utils/25.3.1/AndroidManifest.xml:21:5-23:61
MERGED from [com.android.support:animated-vector-drawable:25.3.1] /Users/jeovahfialho/projetos/uapre-nearby/react-native-google-nearby-connection/example/android/app/build/intermediates/exploded-aar/com.android.support/animated-vector-drawable/25.3.1/AndroidManifest.xml:20:5-44
MERGED from [com.android.support:support-vector-drawable:25.3.1] /Users/jeovahfialho/projetos/uapre-nearby/react-native-google-nearby-connection/example/android/app/build/intermediates/exploded-aar/com.android.support/support-vector-drawable/25.3.1/AndroidManifest.xml:20:5-43
MERGED from [com.android.support:support-compat:25.3.1] /Users/jeovahfialho/projetos/uapre-nearby/react-native-google-nearby-connection/example/android/app/build/intermediates/exploded-aar/com.android.support/support-compat/25.3.1/AndroidManifest.xml:21:5-23:58
	tools:overrideLibrary
		ADDED from [com.android.support:appcompat-v7:25.3.1] /Users/jeovahfialho/projetos/uapre-nearby/react-native-google-nearby-connection/example/android/app/build/intermediates/exploded-aar/com.android.support/appcompat-v7/25.3.1/AndroidManifest.xml:23:9-75
	android:targetSdkVersion
		ADDED from /Users/jeovahfialho/projetos/uapre-nearby/react-native-google-nearby-connection/example/android/app/src/main/AndroidManifest.xml:13:9-38
		INJECTED from /Users/jeovahfialho/projetos/uapre-nearby/react-native-google-nearby-connection/example/android/app/src/main/AndroidManifest.xml
		INJECTED from /Users/jeovahfialho/projetos/uapre-nearby/react-native-google-nearby-connection/example/android/app/src/main/AndroidManifest.xml
	android:minSdkVersion
		ADDED from /Users/jeovahfialho/projetos/uapre-nearby/react-native-google-nearby-connection/example/android/app/src/main/AndroidManifest.xml:12:9-35
		INJECTED from /Users/jeovahfialho/projetos/uapre-nearby/react-native-google-nearby-connection/example/android/app/src/main/AndroidManifest.xml
		INJECTED from /Users/jeovahfialho/projetos/uapre-nearby/react-native-google-nearby-connection/example/android/app/src/main/AndroidManifest.xml
application
ADDED from /Users/jeovahfialho/projetos/uapre-nearby/react-native-google-nearby-connection/example/android/app/src/main/AndroidManifest.xml:15:5-32:19
MERGED from [TempApp:react-native-image-picker:unspecified] /Users/jeovahfialho/projetos/uapre-nearby/react-native-google-nearby-connection/example/android/app/build/intermediates/exploded-aar/TempApp/react-native-image-picker/unspecified/AndroidManifest.xml:11:5-21:19
MERGED from [com.facebook.react:react-native:0.52.0] /Users/jeovahfialho/projetos/uapre-nearby/react-native-google-nearby-connection/example/android/app/build/intermediates/exploded-aar/com.facebook.react/react-native/0.52.0/AndroidManifest.xml:13:5-20
MERGED from [com.facebook.soloader:soloader:0.1.0] /Users/jeovahfialho/projetos/uapre-nearby/react-native-google-nearby-connection/example/android/app/build/intermediates/exploded-aar/com.facebook.soloader/soloader/0.1.0/AndroidManifest.xml:3:3-17
MERGED from [org.webkit:android-jsc:r174650] /Users/jeovahfialho/projetos/uapre-nearby/react-native-google-nearby-connection/example/android/app/build/intermediates/exploded-aar/org.webkit/android-jsc/r174650/AndroidManifest.xml:2:3-17
MERGED from [com.google.android.gms:play-services-nearby:11.8.0] /Users/jeovahfialho/projetos/uapre-nearby/react-native-google-nearby-connection/example/android/app/build/intermediates/exploded-aar/com.google.android.gms/play-services-nearby/11.8.0/AndroidManifest.xml:9:5-20
MERGED from [com.google.android.gms:play-services-base:11.8.0] /Users/jeovahfialho/projetos/uapre-nearby/react-native-google-nearby-connection/example/android/app/build/intermediates/exploded-aar/com.google.android.gms/play-services-base/11.8.0/AndroidManifest.xml:22:5-27:19
MERGED from [com.google.android.gms:play-services-base-license:11.8.0] /Users/jeovahfialho/projetos/uapre-nearby/react-native-google-nearby-connection/example/android/app/build/intermediates/exploded-aar/com.google.android.gms/play-services-base-license/11.8.0/AndroidManifest.xml:5:5-20
MERGED from [com.google.android.gms:play-services-tasks:11.8.0] /Users/jeovahfialho/projetos/uapre-nearby/react-native-google-nearby-connection/example/android/app/build/intermediates/exploded-aar/com.google.android.gms/play-services-tasks/11.8.0/AndroidManifest.xml:7:5-20
MERGED from [com.google.android.gms:play-services-basement:11.8.0] /Users/jeovahfialho/projetos/uapre-nearby/react-native-google-nearby-connection/example/android/app/build/intermediates/exploded-aar/com.google.android.gms/play-services-basement/11.8.0/AndroidManifest.xml:22:5-26:19
MERGED from [com.google.android.gms:play-services-basement-license:11.8.0] /Users/jeovahfialho/projetos/uapre-nearby/react-native-google-nearby-connection/example/android/app/build/intermediates/exploded-aar/com.google.android.gms/play-services-basement-license/11.8.0/AndroidManifest.xml:5:5-20
MERGED from [com.google.android.gms:play-services-tasks-license:11.8.0] /Users/jeovahfialho/projetos/uapre-nearby/react-native-google-nearby-connection/example/android/app/build/intermediates/exploded-aar/com.google.android.gms/play-services-tasks-license/11.8.0/AndroidManifest.xml:5:5-20
MERGED from [com.google.android.gms:play-services-nearby-license:11.8.0] /Users/jeovahfialho/projetos/uapre-nearby/react-native-google-nearby-connection/example/android/app/build/intermediates/exploded-aar/com.google.android.gms/play-services-nearby-license/11.8.0/AndroidManifest.xml:5:5-20
MERGED from [com.android.support:appcompat-v7:25.3.1] /Users/jeovahfialho/projetos/uapre-nearby/react-native-google-nearby-connection/example/android/app/build/intermediates/exploded-aar/com.android.support/appcompat-v7/25.3.1/AndroidManifest.xml:29:5-20
MERGED from [com.android.support:support-v4:25.3.1] /Users/jeovahfialho/projetos/uapre-nearby/react-native-google-nearby-connection/example/android/app/build/intermediates/exploded-aar/com.android.support/support-v4/25.3.1/AndroidManifest.xml:29:5-20
MERGED from [com.android.support:support-fragment:25.3.1] /Users/jeovahfialho/projetos/uapre-nearby/react-native-google-nearby-connection/example/android/app/build/intermediates/exploded-aar/com.android.support/support-fragment/25.3.1/AndroidManifest.xml:29:5-20
MERGED from [com.android.support:support-media-compat:25.3.1] /Users/jeovahfialho/projetos/uapre-nearby/react-native-google-nearby-connection/example/android/app/build/intermediates/exploded-aar/com.android.support/support-media-compat/25.3.1/AndroidManifest.xml:29:5-20
MERGED from [com.android.support:support-core-ui:25.3.1] /Users/jeovahfialho/projetos/uapre-nearby/react-native-google-nearby-connection/example/android/app/build/intermediates/exploded-aar/com.android.support/support-core-ui/25.3.1/AndroidManifest.xml:29:5-20
MERGED from [com.android.support:support-core-utils:25.3.1] /Users/jeovahfialho/projetos/uapre-nearby/react-native-google-nearby-connection/example/android/app/build/intermediates/exploded-aar/com.android.support/support-core-utils/25.3.1/AndroidManifest.xml:29:5-20
MERGED from [com.android.support:animated-vector-drawable:25.3.1] /Users/jeovahfialho/projetos/uapre-nearby/react-native-google-nearby-connection/example/android/app/build/intermediates/exploded-aar/com.android.support/animated-vector-drawable/25.3.1/AndroidManifest.xml:26:5-20
MERGED from [com.android.support:support-vector-drawable:25.3.1] /Users/jeovahfialho/projetos/uapre-nearby/react-native-google-nearby-connection/example/android/app/build/intermediates/exploded-aar/com.android.support/support-vector-drawable/25.3.1/AndroidManifest.xml:26:5-20
MERGED from [com.android.support:support-compat:25.3.1] /Users/jeovahfialho/projetos/uapre-nearby/react-native-google-nearby-connection/example/android/app/build/intermediates/exploded-aar/com.android.support/support-compat/25.3.1/AndroidManifest.xml:29:5-20
	android:label
		ADDED from /Users/jeovahfialho/projetos/uapre-nearby/react-native-google-nearby-connection/example/android/app/src/main/AndroidManifest.xml:18:7-39
	android:allowBackup
		ADDED from /Users/jeovahfialho/projetos/uapre-nearby/react-native-google-nearby-connection/example/android/app/src/main/AndroidManifest.xml:17:7-33
	android:icon
		ADDED from /Users/jeovahfialho/projetos/uapre-nearby/react-native-google-nearby-connection/example/android/app/src/main/AndroidManifest.xml:19:7-41
	android:theme
		ADDED from /Users/jeovahfialho/projetos/uapre-nearby/react-native-google-nearby-connection/example/android/app/src/main/AndroidManifest.xml:20:7-38
	android:name
		ADDED from /Users/jeovahfialho/projetos/uapre-nearby/react-native-google-nearby-connection/example/android/app/src/main/AndroidManifest.xml:16:7-38
activity#com.butchmarshall.reactnative.nearby.connection.MainActivity
ADDED from /Users/jeovahfialho/projetos/uapre-nearby/react-native-google-nearby-connection/example/android/app/src/main/AndroidManifest.xml:21:7-30:18
	android:label
		ADDED from /Users/jeovahfialho/projetos/uapre-nearby/react-native-google-nearby-connection/example/android/app/src/main/AndroidManifest.xml:23:9-41
	android:windowSoftInputMode
		ADDED from /Users/jeovahfialho/projetos/uapre-nearby/react-native-google-nearby-connection/example/android/app/src/main/AndroidManifest.xml:25:9-51
	android:configChanges
		ADDED from /Users/jeovahfialho/projetos/uapre-nearby/react-native-google-nearby-connection/example/android/app/src/main/AndroidManifest.xml:24:9-79
	android:name
		ADDED from /Users/jeovahfialho/projetos/uapre-nearby/react-native-google-nearby-connection/example/android/app/src/main/AndroidManifest.xml:22:9-37
intent-filter#android.intent.action.MAIN+android.intent.category.LAUNCHER
ADDED from /Users/jeovahfialho/projetos/uapre-nearby/react-native-google-nearby-connection/example/android/app/src/main/AndroidManifest.xml:26:9-29:25
action#android.intent.action.MAIN
ADDED from /Users/jeovahfialho/projetos/uapre-nearby/react-native-google-nearby-connection/example/android/app/src/main/AndroidManifest.xml:27:13-65
	android:name
		ADDED from /Users/jeovahfialho/projetos/uapre-nearby/react-native-google-nearby-connection/example/android/app/src/main/AndroidManifest.xml:27:21-62
category#android.intent.category.LAUNCHER
ADDED from /Users/jeovahfialho/projetos/uapre-nearby/react-native-google-nearby-connection/example/android/app/src/main/AndroidManifest.xml:28:13-73
	android:name
		ADDED from /Users/jeovahfialho/projetos/uapre-nearby/react-native-google-nearby-connection/example/android/app/src/main/AndroidManifest.xml:28:23-70
activity#com.facebook.react.devsupport.DevSettingsActivity
ADDED from /Users/jeovahfialho/projetos/uapre-nearby/react-native-google-nearby-connection/example/android/app/src/main/AndroidManifest.xml:31:7-84
	android:name
		ADDED from /Users/jeovahfialho/projetos/uapre-nearby/react-native-google-nearby-connection/example/android/app/src/main/AndroidManifest.xml:31:17-81
provider#android.support.v4.content.FileProvider
ADDED from [TempApp:react-native-image-picker:unspecified] /Users/jeovahfialho/projetos/uapre-nearby/react-native-google-nearby-connection/example/android/app/build/intermediates/exploded-aar/TempApp/react-native-image-picker/unspecified/AndroidManifest.xml:12:9-20:20
	android:authorities
		ADDED from [TempApp:react-native-image-picker:unspecified] /Users/jeovahfialho/projetos/uapre-nearby/react-native-google-nearby-connection/example/android/app/build/intermediates/exploded-aar/TempApp/react-native-image-picker/unspecified/AndroidManifest.xml:14:13-60
	android:grantUriPermissions
		ADDED from [TempApp:react-native-image-picker:unspecified] /Users/jeovahfialho/projetos/uapre-nearby/react-native-google-nearby-connection/example/android/app/build/intermediates/exploded-aar/TempApp/react-native-image-picker/unspecified/AndroidManifest.xml:16:13-47
	android:exported
		ADDED from [TempApp:react-native-image-picker:unspecified] /Users/jeovahfialho/projetos/uapre-nearby/react-native-google-nearby-connection/example/android/app/build/intermediates/exploded-aar/TempApp/react-native-image-picker/unspecified/AndroidManifest.xml:15:13-37
	android:name
		ADDED from [TempApp:react-native-image-picker:unspecified] /Users/jeovahfialho/projetos/uapre-nearby/react-native-google-nearby-connection/example/android/app/build/intermediates/exploded-aar/TempApp/react-native-image-picker/unspecified/AndroidManifest.xml:13:13-67
meta-data#android.support.FILE_PROVIDER_PATHS
ADDED from [TempApp:react-native-image-picker:unspecified] /Users/jeovahfialho/projetos/uapre-nearby/react-native-google-nearby-connection/example/android/app/build/intermediates/exploded-aar/TempApp/react-native-image-picker/unspecified/AndroidManifest.xml:17:13-19:58
	android:resource
		ADDED from [TempApp:react-native-image-picker:unspecified] /Users/jeovahfialho/projetos/uapre-nearby/react-native-google-nearby-connection/example/android/app/build/intermediates/exploded-aar/TempApp/react-native-image-picker/unspecified/AndroidManifest.xml:19:17-55
	android:name
		ADDED from [TempApp:react-native-image-picker:unspecified] /Users/jeovahfialho/projetos/uapre-nearby/react-native-google-nearby-connection/example/android/app/build/intermediates/exploded-aar/TempApp/react-native-image-picker/unspecified/AndroidManifest.xml:18:17-67
android:uses-permission#android.permission.READ_PHONE_STATE
IMPLIED from /Users/jeovahfialho/projetos/uapre-nearby/react-native-google-nearby-connection/example/android/app/src/main/AndroidManifest.xml:1:1-34:12 reason: org.webkit.android_jsc has a targetSdkVersion < 4
android:uses-permission#android.permission.READ_EXTERNAL_STORAGE
IMPLIED from /Users/jeovahfialho/projetos/uapre-nearby/react-native-google-nearby-connection/example/android/app/src/main/AndroidManifest.xml:1:1-34:12 reason: org.webkit.android_jsc requested WRITE_EXTERNAL_STORAGE
MERGED from [TempApp:react-native-google-nearby-connection:unspecified] /Users/jeovahfialho/projetos/uapre-nearby/react-native-google-nearby-connection/example/android/app/build/intermediates/exploded-aar/TempApp/react-native-google-nearby-connection/unspecified/AndroidManifest.xml:19:5-80
uses-permission#android.permission.RECORD_AUDIO
ADDED from [TempApp:react-native-google-nearby-connection:unspecified] /Users/jeovahfialho/projetos/uapre-nearby/react-native-google-nearby-connection/example/android/app/build/intermediates/exploded-aar/TempApp/react-native-google-nearby-connection/unspecified/AndroidManifest.xml:13:5-71
	android:name
		ADDED from [TempApp:react-native-google-nearby-connection:unspecified] /Users/jeovahfialho/projetos/uapre-nearby/react-native-google-nearby-connection/example/android/app/build/intermediates/exploded-aar/TempApp/react-native-google-nearby-connection/unspecified/AndroidManifest.xml:13:22-68
uses-permission#android.permission.BLUETOOTH
ADDED from [TempApp:react-native-google-nearby-connection:unspecified] /Users/jeovahfialho/projetos/uapre-nearby/react-native-google-nearby-connection/example/android/app/build/intermediates/exploded-aar/TempApp/react-native-google-nearby-connection/unspecified/AndroidManifest.xml:14:5-68
	android:name
		ADDED from [TempApp:react-native-google-nearby-connection:unspecified] /Users/jeovahfialho/projetos/uapre-nearby/react-native-google-nearby-connection/example/android/app/build/intermediates/exploded-aar/TempApp/react-native-google-nearby-connection/unspecified/AndroidManifest.xml:14:22-65
uses-permission#android.permission.BLUETOOTH_ADMIN
ADDED from [TempApp:react-native-google-nearby-connection:unspecified] /Users/jeovahfialho/projetos/uapre-nearby/react-native-google-nearby-connection/example/android/app/build/intermediates/exploded-aar/TempApp/react-native-google-nearby-connection/unspecified/AndroidManifest.xml:15:5-74
	android:name
		ADDED from [TempApp:react-native-google-nearby-connection:unspecified] /Users/jeovahfialho/projetos/uapre-nearby/react-native-google-nearby-connection/example/android/app/build/intermediates/exploded-aar/TempApp/react-native-google-nearby-connection/unspecified/AndroidManifest.xml:15:22-71
uses-permission#android.permission.ACCESS_WIFI_STATE
ADDED from [TempApp:react-native-google-nearby-connection:unspecified] /Users/jeovahfialho/projetos/uapre-nearby/react-native-google-nearby-connection/example/android/app/build/intermediates/exploded-aar/TempApp/react-native-google-nearby-connection/unspecified/AndroidManifest.xml:16:5-76
	android:name
		ADDED from [TempApp:react-native-google-nearby-connection:unspecified] /Users/jeovahfialho/projetos/uapre-nearby/react-native-google-nearby-connection/example/android/app/build/intermediates/exploded-aar/TempApp/react-native-google-nearby-connection/unspecified/AndroidManifest.xml:16:22-73
uses-permission#android.permission.CHANGE_WIFI_STATE
ADDED from [TempApp:react-native-google-nearby-connection:unspecified] /Users/jeovahfialho/projetos/uapre-nearby/react-native-google-nearby-connection/example/android/app/build/intermediates/exploded-aar/TempApp/react-native-google-nearby-connection/unspecified/AndroidManifest.xml:17:5-76
	android:name
		ADDED from [TempApp:react-native-google-nearby-connection:unspecified] /Users/jeovahfialho/projetos/uapre-nearby/react-native-google-nearby-connection/example/android/app/build/intermediates/exploded-aar/TempApp/react-native-google-nearby-connection/unspecified/AndroidManifest.xml:17:22-73
uses-permission#android.permission.ACCESS_COARSE_LOCATION
ADDED from [TempApp:react-native-google-nearby-connection:unspecified] /Users/jeovahfialho/projetos/uapre-nearby/react-native-google-nearby-connection/example/android/app/build/intermediates/exploded-aar/TempApp/react-native-google-nearby-connection/unspecified/AndroidManifest.xml:18:5-81
	android:name
		ADDED from [TempApp:react-native-google-nearby-connection:unspecified] /Users/jeovahfialho/projetos/uapre-nearby/react-native-google-nearby-connection/example/android/app/build/intermediates/exploded-aar/TempApp/react-native-google-nearby-connection/unspecified/AndroidManifest.xml:18:22-78
uses-permission#android.permission.ACCESS_NETWORK_STATE
ADDED from [com.google.android.gms:play-services-nearby:11.8.0] /Users/jeovahfialho/projetos/uapre-nearby/react-native-google-nearby-connection/example/android/app/build/intermediates/exploded-aar/com.google.android.gms/play-services-nearby/11.8.0/AndroidManifest.xml:7:5-79
	android:name
		ADDED from [com.google.android.gms:play-services-nearby:11.8.0] /Users/jeovahfialho/projetos/uapre-nearby/react-native-google-nearby-connection/example/android/app/build/intermediates/exploded-aar/com.google.android.gms/play-services-nearby/11.8.0/AndroidManifest.xml:7:22-76
activity#com.google.android.gms.common.api.GoogleApiActivity
ADDED from [com.google.android.gms:play-services-base:11.8.0] /Users/jeovahfialho/projetos/uapre-nearby/react-native-google-nearby-connection/example/android/app/build/intermediates/exploded-aar/com.google.android.gms/play-services-base/11.8.0/AndroidManifest.xml:23:9-26:75
	android:exported
		ADDED from [com.google.android.gms:play-services-base:11.8.0] /Users/jeovahfialho/projetos/uapre-nearby/react-native-google-nearby-connection/example/android/app/build/intermediates/exploded-aar/com.google.android.gms/play-services-base/11.8.0/AndroidManifest.xml:25:13-37
	android:theme
		ADDED from [com.google.android.gms:play-services-base:11.8.0] /Users/jeovahfialho/projetos/uapre-nearby/react-native-google-nearby-connection/example/android/app/build/intermediates/exploded-aar/com.google.android.gms/play-services-base/11.8.0/AndroidManifest.xml:26:13-72
	android:name
		ADDED from [com.google.android.gms:play-services-base:11.8.0] /Users/jeovahfialho/projetos/uapre-nearby/react-native-google-nearby-connection/example/android/app/build/intermediates/exploded-aar/com.google.android.gms/play-services-base/11.8.0/AndroidManifest.xml:24:13-79
meta-data#com.google.android.gms.version
ADDED from [com.google.android.gms:play-services-basement:11.8.0] /Users/jeovahfialho/projetos/uapre-nearby/react-native-google-nearby-connection/example/android/app/build/intermediates/exploded-aar/com.google.android.gms/play-services-basement/11.8.0/AndroidManifest.xml:23:9-25:69
	android:value
		ADDED from [com.google.android.gms:play-services-basement:11.8.0] /Users/jeovahfialho/projetos/uapre-nearby/react-native-google-nearby-connection/example/android/app/build/intermediates/exploded-aar/com.google.android.gms/play-services-basement/11.8.0/AndroidManifest.xml:25:13-66
	android:name
		ADDED from [com.google.android.gms:play-services-basement:11.8.0] /Users/jeovahfialho/projetos/uapre-nearby/react-native-google-nearby-connection/example/android/app/build/intermediates/exploded-aar/com.google.android.gms/play-services-basement/11.8.0/AndroidManifest.xml:24:13-58
meta-data#android.support.VERSION
ADDED from [com.android.support:appcompat-v7:25.3.1] /Users/jeovahfialho/projetos/uapre-nearby/react-native-google-nearby-connection/example/android/app/build/intermediates/exploded-aar/com.android.support/appcompat-v7/25.3.1/AndroidManifest.xml:25:5-27:34
MERGED from [com.android.support:support-v4:25.3.1] /Users/jeovahfialho/projetos/uapre-nearby/react-native-google-nearby-connection/example/android/app/build/intermediates/exploded-aar/com.android.support/support-v4/25.3.1/AndroidManifest.xml:25:5-27:34
MERGED from [com.android.support:support-fragment:25.3.1] /Users/jeovahfialho/projetos/uapre-nearby/react-native-google-nearby-connection/example/android/app/build/intermediates/exploded-aar/com.android.support/support-fragment/25.3.1/AndroidManifest.xml:25:5-27:34
MERGED from [com.android.support:support-media-compat:25.3.1] /Users/jeovahfialho/projetos/uapre-nearby/react-native-google-nearby-connection/example/android/app/build/intermediates/exploded-aar/com.android.support/support-media-compat/25.3.1/AndroidManifest.xml:25:5-27:34
MERGED from [com.android.support:support-core-ui:25.3.1] /Users/jeovahfialho/projetos/uapre-nearby/react-native-google-nearby-connection/example/android/app/build/intermediates/exploded-aar/com.android.support/support-core-ui/25.3.1/AndroidManifest.xml:25:5-27:34
MERGED from [com.android.support:support-core-utils:25.3.1] /Users/jeovahfialho/projetos/uapre-nearby/react-native-google-nearby-connection/example/android/app/build/intermediates/exploded-aar/com.android.support/support-core-utils/25.3.1/AndroidManifest.xml:25:5-27:34
MERGED from [com.android.support:animated-vector-drawable:25.3.1] /Users/jeovahfialho/projetos/uapre-nearby/react-native-google-nearby-connection/example/android/app/build/intermediates/exploded-aar/com.android.support/animated-vector-drawable/25.3.1/AndroidManifest.xml:22:5-24:34
MERGED from [com.android.support:support-vector-drawable:25.3.1] /Users/jeovahfialho/projetos/uapre-nearby/react-native-google-nearby-connection/example/android/app/build/intermediates/exploded-aar/com.android.support/support-vector-drawable/25.3.1/AndroidManifest.xml:22:5-24:34
MERGED from [com.android.support:support-compat:25.3.1] /Users/jeovahfialho/projetos/uapre-nearby/react-native-google-nearby-connection/example/android/app/build/intermediates/exploded-aar/com.android.support/support-compat/25.3.1/AndroidManifest.xml:25:5-27:34
	android:value
		ADDED from [com.android.support:appcompat-v7:25.3.1] /Users/jeovahfialho/projetos/uapre-nearby/react-native-google-nearby-connection/example/android/app/build/intermediates/exploded-aar/com.android.support/appcompat-v7/25.3.1/AndroidManifest.xml:27:9-31
	android:name
		ADDED from [com.android.support:appcompat-v7:25.3.1] /Users/jeovahfialho/projetos/uapre-nearby/react-native-google-nearby-connection/example/android/app/build/intermediates/exploded-aar/com.android.support/appcompat-v7/25.3.1/AndroidManifest.xml:26:9-47
